[
  {
    "key": "group_neoweb_connector_plugin_logo",
    "title": "NeoWeb Connector - Admin Pages - Plugin Logo",
    "fields": [
      {
        "key": "field_load_option_page_plugin_logos",
        "label": "Page Logo",
        "name": "load_option_page_plugin_logos",
        "type": "message",
        "instructions": "",
        "required": 0,
        "conditional_logic": 0,
        "wrapper": {
          "width": "100",
          "class": "",
          "id": ""
        },
        "message": "<div class=\"logoWrapper\"><img alt=\"neoweb-logo\" src=\"'$$IMAGE_FOLDER_PATH$$\/images\/logo.png\"\/><\/div>",
        "new_lines": "wpautop",
        "esc_html": 0
      }
    ],
    "location": [
      [
        [{
          "param": "options_page",
          "operator": "==",
          "value": "neoweb-search-settings"
        }],
        [{
          "param": "options_page",
          "operator": "==",
          "value": "neoweb-notification-settings"
        }],
        [{
          "param": "options_page",
          "operator": "==",
          "value": "neoweb-captcha-settings"
        }],
        [{
          "param": "options_page",
          "operator": "==",
          "value": "neoweb-terms-and-conditions-settings"
        }],
        [{
          "param": "options_page",
          "operator": "==",
          "value": "neoweb-restrictions"
        }],
        [{
          "param": "options_page",
          "operator": "==",
          "value": "neoweb-osm-sections"
        }],
        [{
          "param": "options_page",
          "operator": "==",
          "value": "neoweb-osm-custom-field-maps"
        }],
        [{
          "param": "options_page",
          "operator": "==",
          "value": "neoweb-shortcodes"
        }]
      ]
    ],
    "menu_order": 0,
    "position": "acf_after_title",
    "style": "seamless",
    "label_placement": "top",
    "instruction_placement": "label",
    "hide_on_screen": "",
    "active": true,
    "description": ""
  }
]